JAKes’ Blog – MyQuartoBlog
…
# Print summary to verify strain distribution
summary_stats <- covid_ts %>%
  group_by(state) %>%
  summarise(
    total_cases = sum(total_infections, na.rm = TRUE),
    total_original = sum(Original, na.rm = TRUE),
    total_alpha = sum(Alpha, na.rm = TRUE),
    total_delta = sum(Delta, na.rm = TRUE),
    total_omicron = sum(Omicron, na.rm = TRUE)
  )
print(summary_stats)

# A tibble: 50 × 6
   state       total_cases total_original total_alpha total_delta total_omicron
   <chr>             <int>          <int>       <int>       <int>         <int>
 1 Alabama          109770          66280       25232       13651          4607
 2 Alaska           110080          67037       24653       13723          4667
 3 Arizona          109665          66316       24736       13704          4909
 4 Arkansas         109318          65673       24896       14053          4696
 5 California       109283          66069       24815       13900          4499
 6 Colorado         110017          66794       24576       13882          4765
 7 Connecticut      109499          66531       24468       13610          4890
 8 Delaware         109142          65897       24663       13907          4675
 9 Florida          110094          66292       24970       13889          4943
10 Georgia          109556          66339       25129       13359          4729
# ℹ 40 more rows
…
